data modify entity @s HandItems[0].tag.array set value []

function merge_sort:compare

data remove entity @s HandItems[0].tag.return[0]
data modify entity @s HandItems[0].tag.return[0] set from entity @s HandItems[0].tag.array